{"virtual_visits":{"data":[{"id":"1229150","type":"rtc_participants","attributes":{"CallType":"Video","Owner":"SYHS Qliq Virtual Visits AP U","Widget":"Saint Josephs Telemedicine","SessionID":"RM9580cc9bf201d98e671e717b81e92599","Type":"Patient","Title":null,"Status":"left","StartAt":"2020-11-05T07:05:38.000-06:00","JoinedAt":"2020-11-05T07:05:48.000-06:00","LeftAt":"2020-11-05T07:19:15.000-06:00","Duration":807.0,"DeviceBrowser":"Mozilla/5.0 (iPhone; CPU iPhone OS 13_3_1 like Mac OS X) AppleWebKit/605.1.15 (KHTML, like Gecko) Version/13.0.5 Mobile/15E148 Safari/604.1","FailureReason":null}},{"id":"1229149","type":"rtc_participants","attributes":{"CallType":"Video","Owner":"SYHS Qliq Virtual Visits AP U","Widget":"Saint Josephs Telemedicine","SessionID":"RM9580cc9bf201d98e671e717b81e92599","Type":"User","Title":"Physician","Status":"left","StartAt":"2020-11-05T07:05:33.000-06:00","JoinedAt":"2020-11-05T07:05:35.000-06:00","LeftAt":"2020-11-05T07:18:31.000-06:00","Duration":776.0,"DeviceBrowser":"Mozilla/5.0 (Windows NT 10.0; Win64; x64) AppleWebKit/537.36 (KHTML, like Gecko) Chrome/86.0.4240.75 Safari/537.36","FailureReason":null}},{"id":"1229148","type":"rtc_participants","attributes":{"CallType":"Video","Owner":"ANHS Qliq Virtual Visits AP U","Widget":"St Marys Athens Telemedicine","SessionID":"RM340fe0b0a6509562c3aead88b0b75c7e","Type":"Patient","Title":null,"Status":"left","StartAt":"2020-11-05T07:05:26.000-06:00","JoinedAt":"2020-11-05T07:05:31.000-06:00","LeftAt":"2020-11-05T07:13:47.000-06:00","Duration":496.0,"DeviceBrowser":"Mozilla/5.0 (Windows NT 10.0; Win64; x64) AppleWebKit/537.36 (KHTML, like Gecko) Chrome/86.0.4240.183 Safari/537.36","FailureReason":null}},{"id":"1229147","type":"rtc_participants","attributes":{"CallType":"Video","Owner":"ANHS Qliq Virtual Visits AP U","Widget":"St Marys Athens Telemedicine","SessionID":"RM340fe0b0a6509562c3aead88b0b75c7e","Type":"User","Title":"PHYSICIAN","Status":"left","StartAt":"2020-11-05T07:05:16.000-06:00","JoinedAt":"2020-11-05T07:05:23.000-06:00","LeftAt":"2020-11-05T07:13:47.000-06:00","Duration":504.0,"DeviceBrowser":"Mozilla/5.0 (Windows NT 10.0; Win64; x64) AppleWebKit/537.36 (KHTML, like Gecko) Chrome/77.0.3865.90 Safari/537.36","FailureReason":null}},{"id":"1229146","type":"rtc_participants","attributes":{"CallType":"Video","Owner":"HTHS Qliq Virtual Visits AP U","Widget":"Trinity Health of New England  (HT) Telemedicine","SessionID":"RMbfd628b0940ead09e8c7b18e4f3bb5f0","Type":"User","Title":"PHYSICIAN/STAFF","Status":"left","StartAt":"2020-11-05T07:04:57.000-06:00","JoinedAt":"2020-11-05T07:04:59.000-06:00","LeftAt":"2020-11-05T10:53:54.000-06:00","Duration":13735.0,"DeviceBrowser":"Mozilla/5.0 (Windows NT 10.0; Win64; x64) AppleWebKit/537.36 (KHTML, like Gecko) Chrome/86.0.4240.183 Safari/537.36","FailureReason":null}},{"id":"1229145","type":"rtc_participants","attributes":{"CallType":"Video","Owner":"ANHS Qliq Virtual Visits AP U","Widget":"St Marys Athens Telemedicine","SessionID":"RM4172565125e8178fd2db18e54827bb19","Type":"Patient","Title":null,"Status":"left","StartAt":"2020-11-05T07:04:49.000-06:00","JoinedAt":"2020-11-05T07:04:50.000-06:00","LeftAt":"2020-11-05T07:13:15.000-06:00","Duration":505.0,"DeviceBrowser":"Mozilla/5.0 (Linux; Android 11; Pixel 4) AppleWebKit/537.36 (KHTML, like Gecko) SamsungBrowser/12.1 Chrome/79.0.3945.136 Mobile Safari/537.36","FailureReason":null}},{"id":"1229144","type":"rtc_participants","attributes":{"CallType":"Video","Owner":"ANHS Qliq Virtual Visits AP U","Widget":"St Marys Athens Telemedicine","SessionID":"RM4172565125e8178fd2db18e54827bb19","Type":"User","Title":"NEUROLOGIST","Status":"left","StartAt":"2020-11-05T07:04:42.000-06:00","JoinedAt":"2020-11-05T07:04:47.000-06:00","LeftAt":"2020-11-05T07:13:15.000-06:00","Duration":508.0,"DeviceBrowser":"Mozilla/5.0 (Windows NT 10.0; Win64; x64) AppleWebKit/537.36 (KHTML, like Gecko) Chrome/86.0.4240.75 Safari/537.36","FailureReason":null}},{"id":"1229143","type":"rtc_participants","attributes":{"CallType":"Video","Owner":"AASJ Qliq Virtual Visits AP U","Widget":"SJMHS Behavioral Health Telemedicine","SessionID":"RMc12057d2e18718b955291e36da6ea92d","Type":"Patient","Title":null,"Status":"left","StartAt":"2020-11-05T07:04:27.000-06:00","JoinedAt":"2020-11-05T07:04:28.000-06:00","LeftAt":"2020-11-05T08:00:15.000-06:00","Duration":3347.0,"DeviceBrowser":"Mozilla/5.0 (Windows NT 10.0; Win64; x64) AppleWebKit/537.36 (KHTML, like Gecko) Chrome/86.0.4240.111 Safari/537.36","FailureReason":null}},{"id":"1229142","type":"rtc_participants","attributes":{"CallType":"Video","Owner":"AASJ Qliq Virtual Visits AP U","Widget":"SJMHS Behavioral Health Telemedicine","SessionID":"RMc12057d2e18718b955291e36da6ea92d","Type":"User","Title":"Behavioral Hlth Therapist","Status":"left","StartAt":"2020-11-05T07:04:18.000-06:00","JoinedAt":"2020-11-05T07:04:22.000-06:00","LeftAt":"2020-11-05T08:00:15.000-06:00","Duration":3353.0,"DeviceBrowser":"Mozilla/5.0 (Windows NT 10.0; Win64; x64) AppleWebKit/537.36 (KHTML, like Gecko) Chrome/86.0.4240.75 Safari/537.36","FailureReason":null}},{"id":"1229141","type":"rtc_participants","attributes":{"CallType":"Video","Owner":"ANHS Qliq Virtual Visits AP U","Widget":"St Marys Athens Telemedicine","SessionID":"RM9a92da261aaaee5ccf04df8b438fa5e4","Type":"User","Title":"NEUROLOGIST","Status":"created","StartAt":"2020-11-05T07:03:59.000-06:00","JoinedAt":null,"LeftAt":null,"Duration":null,"DeviceBrowser":"Mozilla/5.0 (Windows NT 10.0; Win64; x64) AppleWebKit/537.36 (KHTML, like Gecko) Chrome/86.0.4240.75 Safari/537.36","FailureReason":null}},{"id":"1229139","type":"rtc_participants","attributes":{"CallType":"Video","Owner":"SSHS Qliq Virtual Visits AP U","Widget":"Holy Cross Maryland Telemedicine","SessionID":"RMb4d5bf4b07d65a5204fc4276e98e26bb","Type":"Patient","Title":null,"Status":"left","StartAt":"2020-11-05T07:02:31.000-06:00","JoinedAt":"2020-11-05T07:02:35.000-06:00","LeftAt":"2020-11-05T07:06:20.000-06:00","Duration":225.0,"DeviceBrowser":"Mozilla/5.0 (iPhone; CPU iPhone OS 14_1 like Mac OS X) AppleWebKit/605.1.15 (KHTML, like Gecko) Version/14.0 Mobile/15E148 Safari/604.1","FailureReason":null}},{"id":"1229138","type":"rtc_participants","attributes":{"CallType":"Video","Owner":"SSHS Qliq Virtual Visits AP U","Widget":"Holy Cross Maryland Telemedicine","SessionID":"RMb4d5bf4b07d65a5204fc4276e98e26bb","Type":"User","Title":"Physician","Status":"left","StartAt":"2020-11-05T07:02:25.000-06:00","JoinedAt":"2020-11-05T07:02:28.000-06:00","LeftAt":"2020-11-05T07:06:20.000-06:00","Duration":232.0,"DeviceBrowser":"Mozilla/5.0 (Windows NT 10.0; Win64; x64) AppleWebKit/537.36 (KHTML, like Gecko) Chrome/86.0.4240.75 Safari/537.36","FailureReason":null}},{"id":"1229137","type":"rtc_participants","attributes":{"CallType":"Video","Owner":"CO01 Qliq Virtual Visits AP U","Widget":"MCMG Virtual Connect","SessionID":"RM4e524923716e4cc5ff6ca9b6b110bb3f","Type":"Patient","Title":null,"Status":"left","StartAt":"2020-11-05T07:02:03.000-06:00","JoinedAt":"2020-11-05T07:02:07.000-06:00","LeftAt":"2020-11-05T07:51:10.000-06:00","Duration":2943.0,"DeviceBrowser":"Mozilla/5.0 (iPhone; CPU iPhone OS 14_1 like Mac OS X) AppleWebKit/605.1.15 (KHTML, like Gecko) Version/14.0 Mobile/15E148 Safari/604.1","FailureReason":null}},{"id":"1229136","type":"rtc_participants","attributes":{"CallType":"Video","Owner":"CO01 Qliq Virtual Visits AP U","Widget":"MCMG Virtual Connect","SessionID":"RM4e524923716e4cc5ff6ca9b6b110bb3f","Type":"User","Title":"Clinical Educator","Status":"left","StartAt":"2020-11-05T07:01:57.000-06:00","JoinedAt":"2020-11-05T07:02:00.000-06:00","LeftAt":"2020-11-05T07:51:09.000-06:00","Duration":2949.0,"DeviceBrowser":"Mozilla/5.0 (Windows NT 10.0; Win64; x64) AppleWebKit/537.36 (KHTML, like Gecko) Chrome/86.0.4240.75 Safari/537.36","FailureReason":null}},{"id":"1229135","type":"rtc_participants","attributes":{"CallType":"Video","Owner":"CO01 Qliq Virtual Visits AP U","Widget":"MCMG Telemedicine","SessionID":"RMe3f3709f1a89565529da055b709c558f","Type":"Patient","Title":null,"Status":"left","StartAt":"2020-11-05T07:01:53.000-06:00","JoinedAt":"2020-11-05T07:01:57.000-06:00","LeftAt":"2020-11-05T07:08:46.000-06:00","Duration":409.0,"DeviceBrowser":"Mozilla/5.0 (iPhone; CPU iPhone OS 14_1 like Mac OS X) AppleWebKit/605.1.15 (KHTML, like Gecko) Version/14.0 Mobile/15E148 Safari/604.1","FailureReason":null}},{"id":"1229134","type":"rtc_participants","attributes":{"CallType":"Video","Owner":"CO01 Qliq Virtual Visits AP U","Widget":"MCMG Telemedicine","SessionID":"RMe3f3709f1a89565529da055b709c558f","Type":"User","Title":"Physician","Status":"left","StartAt":"2020-11-05T07:01:48.000-06:00","JoinedAt":"2020-11-05T07:01:51.000-06:00","LeftAt":"2020-11-05T07:08:45.000-06:00","Duration":414.0,"DeviceBrowser":"Mozilla/5.0 (Macintosh; Intel Mac OS X 10_15_4) AppleWebKit/605.1.15 (KHTML, like Gecko) Version/13.1.1 Safari/605.1.15","FailureReason":null}},{"id":"1229133","type":"rtc_participants","attributes":{"CallType":"Video","Owner":"HTHS Qliq Virtual Visits AP U","Widget":"Trinity Health of New England  (HT) Telemedicine","SessionID":"RM913de26d8ec9882c6952aab87d104c92","Type":"Patient","Title":null,"Status":"left","StartAt":"2020-11-05T07:01:18.000-06:00","JoinedAt":"2020-11-05T07:01:20.000-06:00","LeftAt":"2020-11-05T07:53:32.000-06:00","Duration":3132.0,"DeviceBrowser":"Mozilla/5.0 (Windows NT 10.0; Win64; x64) AppleWebKit/537.36 (KHTML, like Gecko) Chrome/86.0.4240.183 Safari/537.36","FailureReason":null}},{"id":"1229132","type":"rtc_participants","attributes":{"CallType":"Video","Owner":"HTHS Qliq Virtual Visits AP U","Widget":"Trinity Health of New England  (HT) Telemedicine","SessionID":"RM913de26d8ec9882c6952aab87d104c92","Type":"User","Title":"ADA DIETITIAN","Status":"left","StartAt":"2020-11-05T07:01:15.000-06:00","JoinedAt":"2020-11-05T07:01:17.000-06:00","LeftAt":"2020-11-05T07:53:32.000-06:00","Duration":3135.0,"DeviceBrowser":"Mozilla/5.0 (Windows NT 10.0; Win64; x64) AppleWebKit/537.36 (KHTML, like Gecko) Chrome/86.0.4240.183 Safari/537.36","FailureReason":null}},{"id":"1229131","type":"rtc_participants","attributes":{"CallType":"Video","Owner":"HTHS Qliq Virtual Visits AP U","Widget":"Trinity Health of New England  (HT) Telemedicine","SessionID":"RM043d12c46784dc3d3a124adac0c171b3","Type":"User","Title":"PHYSICIAN ASSISTANT","Status":"left","StartAt":"2020-11-05T07:01:05.000-06:00","JoinedAt":"2020-11-05T07:01:07.000-06:00","LeftAt":"2020-11-05T07:04:59.000-06:00","Duration":232.0,"DeviceBrowser":"Mozilla/5.0 (Linux; Android 10; SM-N975U) AppleWebKit/537.36 (KHTML, like Gecko) Chrome/86.0.4240.185 Mobile Safari/537.36","FailureReason":null}},{"id":"1229130","type":"rtc_participants","attributes":{"CallType":"Video","Owner":"ALHS Qliq Virtual Visits AP U","Widget":"SPHPMA Telemedicine","SessionID":"RM78fd12c853b2bf5a8ec48770c772f4e0","Type":"Patient","Title":null,"Status":"left","StartAt":"2020-11-05T07:00:41.000-06:00","JoinedAt":"2020-11-05T07:00:47.000-06:00","LeftAt":"2020-11-05T07:24:02.000-06:00","Duration":1395.0,"DeviceBrowser":"Mozilla/5.0 (iPhone; CPU iPhone OS 14_1 like Mac OS X) AppleWebKit/605.1.15 (KHTML, like Gecko) Version/14.0 Mobile/15E148 Safari/604.1","FailureReason":null}},{"id":"1229129","type":"rtc_participants","attributes":{"CallType":"Video","Owner":"HTHS Qliq Virtual Visits AP U","Widget":"Trinity Health of New England  (HT) Telemedicine","SessionID":"RM617794f8b73ffdd0e2f6862801ce1a76","Type":"Patient","Title":null,"Status":"left","StartAt":"2020-11-05T07:00:40.000-06:00","JoinedAt":"2020-11-05T07:00:43.000-06:00","LeftAt":"2020-11-05T07:00:54.000-06:00","Duration":11.0,"DeviceBrowser":"Mozilla/5.0 (iPhone; CPU iPhone OS 13_7 like Mac OS X) AppleWebKit/605.1.15 (KHTML, like Gecko) Version/13.1.2 Mobile/15E148 Safari/604.1","FailureReason":null}},{"id":"1229128","type":"rtc_participants","attributes":{"CallType":"Video","Owner":"ALHS Qliq Virtual Visits AP U","Widget":"SPHPMA Telemedicine","SessionID":"RM78fd12c853b2bf5a8ec48770c772f4e0","Type":"User","Title":"PHYS ASST-SPEC/PHYS PRAC-NE","Status":"left","StartAt":"2020-11-05T07:00:37.000-06:00","JoinedAt":"2020-11-05T07:00:38.000-06:00","LeftAt":"2020-11-05T07:24:01.000-06:00","Duration":1403.0,"DeviceBrowser":"Mozilla/5.0 (Windows NT 10.0; Win64; x64) AppleWebKit/537.36 (KHTML, like Gecko) Chrome/85.0.4183.83 Safari/537.36","FailureReason":null}},{"id":"1229127","type":"rtc_participants","attributes":{"CallType":"Video","Owner":"HTHS Qliq Virtual Visits AP U","Widget":"Trinity Health of New England  (HT) Telemedicine","SessionID":"RM617794f8b73ffdd0e2f6862801ce1a76","Type":"User","Title":"PHYSICIAN ASSISTANT","Status":"left","StartAt":"2020-11-05T07:00:34.000-06:00","JoinedAt":"2020-11-05T07:00:36.000-06:00","LeftAt":"2020-11-05T07:00:54.000-06:00","Duration":18.0,"DeviceBrowser":"Mozilla/5.0 (Linux; Android 10; SM-N975U) AppleWebKit/537.36 (KHTML, like Gecko) Chrome/86.0.4240.185 Mobile Safari/537.36","FailureReason":null}},{"id":"1229126","type":"rtc_participants","attributes":{"CallType":"Video","Owner":"ALHS Qliq Virtual Visits AP U","Widget":"SPHPMA Telemedicine","SessionID":"RMce705080ac0cd5b038fb2002491c6e37","Type":"Patient","Title":null,"Status":"left","StartAt":"2020-11-05T06:56:51.000-06:00","JoinedAt":"2020-11-05T06:56:59.000-06:00","LeftAt":"2020-11-05T07:10:00.000-06:00","Duration":781.0,"DeviceBrowser":"Mozilla/5.0 (iPhone; CPU iPhone OS 14_1 like Mac OS X) AppleWebKit/605.1.15 (KHTML, like Gecko) Version/14.0 Mobile/15E148 Safari/604.1","FailureReason":null}},{"id":"1229125","type":"rtc_participants","attributes":{"CallType":"Video","Owner":"ALHS Qliq Virtual Visits AP U","Widget":"SPHPMA Telemedicine","SessionID":"RMce705080ac0cd5b038fb2002491c6e37","Type":"User","Title":"PHYSICIAN","Status":"left","StartAt":"2020-11-05T06:55:43.000-06:00","JoinedAt":"2020-11-05T06:55:44.000-06:00","LeftAt":"2020-11-05T07:09:59.000-06:00","Duration":855.0,"DeviceBrowser":"Mozilla/5.0 (Windows NT 10.0; Win64; x64) AppleWebKit/537.36 (KHTML, like Gecko) Chrome/86.0.4240.75 Safari/537.36","FailureReason":null}},{"id":"1229124","type":"rtc_participants","attributes":{"CallType":"Video","Owner":"LHHS Qliq Virtual Visits AP U","Widget":"Langhorne Telemedicine","SessionID":"RMc7acf7ff120594806fe85effedd90f5c","Type":"Patient","Title":null,"Status":"left","StartAt":"2020-11-05T06:55:29.000-06:00","JoinedAt":"2020-11-05T06:55:31.000-06:00","LeftAt":"2020-11-05T07:03:47.000-06:00","Duration":496.0,"DeviceBrowser":"Mozilla/5.0 (iPhone; CPU iPhone OS 13_7 like Mac OS X) AppleWebKit/605.1.15 (KHTML, like Gecko) Version/13.1.2 Mobile/15E148 Safari/604.1","FailureReason":null}},{"id":"1229123","type":"rtc_participants","attributes":{"CallType":"Video","Owner":"LHHS Qliq Virtual Visits AP U","Widget":"Langhorne Telemedicine","SessionID":"RMc7acf7ff120594806fe85effedd90f5c","Type":"User","Title":"PHYSICIAN, LPS","Status":"left","StartAt":"2020-11-05T06:55:23.000-06:00","JoinedAt":"2020-11-05T06:55:26.000-06:00","LeftAt":"2020-11-05T07:03:45.000-06:00","Duration":499.0,"DeviceBrowser":"Mozilla/5.0 (Windows NT 10.0; Win64; x64) AppleWebKit/537.36 (KHTML, like Gecko) Chrome/85.0.4183.83 Safari/537.36","FailureReason":null}},{"id":"1229122","type":"rtc_participants","attributes":{"CallType":"Video","Owner":"ALHS Qliq Virtual Visits AP U","Widget":"SPHPMA Telemedicine","SessionID":"RMe0eaaffad3664119aa0bb0f0cd7bb2ee","Type":"Patient","Title":null,"Status":"left","StartAt":"2020-11-05T06:53:55.000-06:00","JoinedAt":"2020-11-05T06:53:57.000-06:00","LeftAt":"2020-11-05T06:56:18.000-06:00","Duration":141.0,"DeviceBrowser":"Mozilla/5.0 (Linux; Android 10; SAMSUNG SM-S102DL) AppleWebKit/537.36 (KHTML, like Gecko) SamsungBrowser/12.1 Chrome/79.0.3945.136 Mobile Safari/537.36","FailureReason":null}},{"id":"1229121","type":"rtc_participants","attributes":{"CallType":"Video","Owner":"ALHS Qliq Virtual Visits AP U","Widget":"SPHPMA Telemedicine","SessionID":"RMe0eaaffad3664119aa0bb0f0cd7bb2ee","Type":"User","Title":"PHYSICIAN","Status":"left","StartAt":"2020-11-05T06:53:52.000-06:00","JoinedAt":"2020-11-05T06:53:53.000-06:00","LeftAt":"2020-11-05T06:56:18.000-06:00","Duration":145.0,"DeviceBrowser":"Mozilla/5.0 (Windows NT 10.0; Win64; x64) AppleWebKit/537.36 (KHTML, like Gecko) Chrome/86.0.4240.75 Safari/537.36","FailureReason":null}},{"id":"1229118","type":"rtc_participants","attributes":{"CallType":"Video","Owner":"ALHS Qliq Virtual Visits AP U","Widget":"SPHPMA Telemedicine","SessionID":"RMaa3fd5e2a956580c326ded123c9188a8","Type":"User","Title":"PHYSICIAN","Status":"left","StartAt":"2020-11-05T06:46:53.000-06:00","JoinedAt":"2020-11-05T06:46:54.000-06:00","LeftAt":"2020-11-05T06:53:43.000-06:00","Duration":409.0,"DeviceBrowser":"Mozilla/5.0 (Windows NT 10.0; Win64; x64) AppleWebKit/537.36 (KHTML, like Gecko) Chrome/86.0.4240.75 Safari/537.36","FailureReason":null}},{"id":"1229117","type":"rtc_participants","attributes":{"CallType":"Video","Owner":"ALHS Qliq Virtual Visits AP U","Widget":"SPHPMA Telemedicine","SessionID":"RM29a3d71d1722738f502ec33606744312","Type":"Patient","Title":null,"Status":"left","StartAt":"2020-11-05T06:45:58.000-06:00","JoinedAt":"2020-11-05T06:46:02.000-06:00","LeftAt":"2020-11-05T06:53:06.000-06:00","Duration":424.0,"DeviceBrowser":"Mozilla/5.0 (iPhone; CPU iPhone OS 14_1 like Mac OS X) AppleWebKit/605.1.15 (KHTML, like Gecko) Version/14.0 Mobile/15E148 Safari/604.1","FailureReason":null}},{"id":"1229116","type":"rtc_participants","attributes":{"CallType":"Video","Owner":"ALHS Qliq Virtual Visits AP U","Widget":"SPHPMA Telemedicine","SessionID":"RM29a3d71d1722738f502ec33606744312","Type":"User","Title":"NURSE PRACT/PHYS PRAC-E","Status":"left","StartAt":"2020-11-05T06:45:49.000-06:00","JoinedAt":"2020-11-05T06:45:55.000-06:00","LeftAt":"2020-11-05T06:53:06.000-06:00","Duration":431.0,"DeviceBrowser":"Mozilla/5.0 (Windows NT 10.0; Win64; x64) AppleWebKit/537.36 (KHTML, like Gecko) Chrome/86.0.4240.75 Safari/537.36","FailureReason":null}},{"id":"1229115","type":"rtc_participants","attributes":{"CallType":"Video","Owner":"ALHS Qliq Virtual Visits AP U","Widget":"SPHPMA Telemedicine","SessionID":"RMffa2840a61a7a0c5d26bbd57527cf7c2","Type":"User","Title":"PHYSICIAN","Status":"left","StartAt":"2020-11-05T06:40:11.000-06:00","JoinedAt":"2020-11-05T06:40:13.000-06:00","LeftAt":"2020-11-05T07:25:54.000-06:00","Duration":2741.0,"DeviceBrowser":"Mozilla/5.0 (Windows NT 10.0; Win64; x64) AppleWebKit/537.36 (KHTML, like Gecko) Chrome/86.0.4240.75 Safari/537.36","FailureReason":null}},{"id":"1229112","type":"rtc_participants","attributes":{"CallType":"Video","Owner":"SJ01 Qliq Virtual Visits AP U","Widget":"SJRMC Telemedicine","SessionID":"RMda540d922c2901c0763c6e4d02a454b1","Type":"Patient","Title":null,"Status":"left","StartAt":"2020-11-05T06:34:03.000-06:00","JoinedAt":"2020-11-05T06:34:09.000-06:00","LeftAt":"2020-11-05T06:38:03.000-06:00","Duration":234.0,"DeviceBrowser":"Mozilla/5.0 (iPhone; CPU iPhone OS 14_1 like Mac OS X) AppleWebKit/605.1.15 (KHTML, like Gecko) Version/14.0 Mobile/15E148 Safari/604.1","FailureReason":null}},{"id":"1229111","type":"rtc_participants","attributes":{"CallType":"Video","Owner":"SJ01 Qliq Virtual Visits AP U","Widget":"SJRMC Telemedicine","SessionID":"RMda540d922c2901c0763c6e4d02a454b1","Type":"User","Title":"Nurse Practitioner","Status":"left","StartAt":"2020-11-05T06:33:55.000-06:00","JoinedAt":"2020-11-05T06:34:00.000-06:00","LeftAt":"2020-11-05T06:38:02.000-06:00","Duration":242.0,"DeviceBrowser":"Mozilla/5.0 (Windows NT 10.0; Win64; x64) AppleWebKit/537.36 (KHTML, like Gecko) Chrome/86.0.4240.75 Safari/537.36","FailureReason":null}},{"id":"1229110","type":"rtc_participants","attributes":{"CallType":"Video","Owner":"CO01 Qliq Virtual Visits AP U","Widget":"MCMG Telemedicine","SessionID":"RMf45e42c6c5b1e92b00dedb03e1a5b0fe","Type":"Patient","Title":null,"Status":"left","StartAt":"2020-11-05T06:32:12.000-06:00","JoinedAt":"2020-11-05T06:32:14.000-06:00","LeftAt":"2020-11-05T06:36:11.000-06:00","Duration":237.0,"DeviceBrowser":"Mozilla/5.0 (Linux; Android 9; SM-G950U) AppleWebKit/537.36 (KHTML, like Gecko) Chrome/86.0.4240.185 Mobile Safari/537.36","FailureReason":null}},{"id":"1229109","type":"rtc_participants","attributes":{"CallType":"Video","Owner":"CO01 Qliq Virtual Visits AP U","Widget":"MCMG Telemedicine","SessionID":"RMf45e42c6c5b1e92b00dedb03e1a5b0fe","Type":"User","Title":"APRN - Nurse Practitioner","Status":"left","StartAt":"2020-11-05T06:32:06.000-06:00","JoinedAt":"2020-11-05T06:32:09.000-06:00","LeftAt":"2020-11-05T06:36:11.000-06:00","Duration":242.0,"DeviceBrowser":"Mozilla/5.0 (Windows NT 10.0; Win64; x64) AppleWebKit/537.36 (KHTML, like Gecko) Chrome/85.0.4183.83 Safari/537.36","FailureReason":null}},{"id":"1229108","type":"rtc_participants","attributes":{"CallType":"Video","Owner":"CO01 Qliq Virtual Visits AP U","Widget":"MCMG Telemedicine","SessionID":"RMc8d378146245e47e0dae59919439ad14","Type":"Patient","Title":null,"Status":"left","StartAt":"2020-11-05T06:28:01.000-06:00","JoinedAt":"2020-11-05T06:28:05.000-06:00","LeftAt":"2020-11-05T06:34:51.000-06:00","Duration":406.0,"DeviceBrowser":"Mozilla/5.0 (iPhone; CPU iPhone OS 14_1 like Mac OS X) AppleWebKit/605.1.15 (KHTML, like Gecko) Version/14.0 Mobile/15E148 Safari/604.1","FailureReason":null}},{"id":"1229107","type":"rtc_participants","attributes":{"CallType":"Video","Owner":"CO01 Qliq Virtual Visits AP U","Widget":"MCMG Telemedicine","SessionID":"RMc8d378146245e47e0dae59919439ad14","Type":"User","Title":"Physician","Status":"left","StartAt":"2020-11-05T06:27:47.000-06:00","JoinedAt":"2020-11-05T06:27:50.000-06:00","LeftAt":"2020-11-05T06:34:50.000-06:00","Duration":420.0,"DeviceBrowser":"Mozilla/5.0 (Macintosh; Intel Mac OS X 10_15_4) AppleWebKit/605.1.15 (KHTML, like Gecko) Version/13.1.1 Safari/605.1.15","FailureReason":null}},{"id":"1229106","type":"rtc_participants","attributes":{"CallType":"Video","Owner":"CO01 Qliq Virtual Visits AP U","Widget":"MCMG Telemedicine","SessionID":"RM2705981378003f784578cdf828b4211c","Type":"Patient","Title":null,"Status":"left","StartAt":"2020-11-05T06:14:47.000-06:00","JoinedAt":"2020-11-05T06:14:53.000-06:00","LeftAt":"2020-11-05T06:28:57.000-06:00","Duration":844.0,"DeviceBrowser":"Mozilla/5.0 (iPhone; CPU iPhone OS 14_1 like Mac OS X) AppleWebKit/605.1.15 (KHTML, like Gecko) Version/14.0 Mobile/15E148 Safari/604.1","FailureReason":null}},{"id":"1229105","type":"rtc_participants","attributes":{"CallType":"Video","Owner":"CO01 Qliq Virtual Visits AP U","Widget":"MCMG Telemedicine","SessionID":"RM2705981378003f784578cdf828b4211c","Type":"User","Title":"Physician","Status":"left","StartAt":"2020-11-05T06:14:43.000-06:00","JoinedAt":"2020-11-05T06:14:45.000-06:00","LeftAt":"2020-11-05T06:28:23.000-06:00","Duration":818.0,"DeviceBrowser":"Mozilla/5.0 (Macintosh; Intel Mac OS X 10_15_4) AppleWebKit/605.1.15 (KHTML, like Gecko) Version/13.1.1 Safari/605.1.15","FailureReason":null}},{"id":"1229104","type":"rtc_participants","attributes":{"CallType":"Video","Owner":"CO01 Qliq Virtual Visits AP U","Widget":"MCMG Telemedicine","SessionID":"RM7bba63dcc939f59aed81e16ac16509fe","Type":"Patient","Title":null,"Status":"left","StartAt":"2020-11-05T06:13:44.000-06:00","JoinedAt":"2020-11-05T06:13:52.000-06:00","LeftAt":"2020-11-05T06:14:33.000-06:00","Duration":41.0,"DeviceBrowser":"Mozilla/5.0 (iPhone; CPU iPhone OS 14_1 like Mac OS X) AppleWebKit/605.1.15 (KHTML, like Gecko) Version/14.0 Mobile/15E148 Safari/604.1","FailureReason":null}},{"id":"1229103","type":"rtc_participants","attributes":{"CallType":"Video","Owner":"CO01 Qliq Virtual Visits AP U","Widget":"MCMG Telemedicine","SessionID":"RM7bba63dcc939f59aed81e16ac16509fe","Type":"User","Title":"Physician","Status":"left","StartAt":"2020-11-05T06:13:19.000-06:00","JoinedAt":"2020-11-05T06:13:21.000-06:00","LeftAt":"2020-11-05T06:14:33.000-06:00","Duration":72.0,"DeviceBrowser":"Mozilla/5.0 (Macintosh; Intel Mac OS X 10_15_4) AppleWebKit/605.1.15 (KHTML, like Gecko) Version/13.1.1 Safari/605.1.15","FailureReason":null}},{"id":"1229102","type":"rtc_participants","attributes":{"CallType":"Video","Owner":"ALHS Qliq Virtual Visits AP U","Widget":"SPHPMA Telemedicine","SessionID":"RM02864e335464a3652e021222a70a3fe9","Type":"Patient","Title":null,"Status":"left","StartAt":"2020-11-05T06:11:17.000-06:00","JoinedAt":"2020-11-05T06:11:21.000-06:00","LeftAt":"2020-11-05T06:16:28.000-06:00","Duration":307.0,"DeviceBrowser":"Mozilla/5.0 (iPhone; CPU iPhone OS 14_1 like Mac OS X) AppleWebKit/605.1.15 (KHTML, like Gecko) Version/14.0 Mobile/15E148 Safari/604.1","FailureReason":null}},{"id":"1229101","type":"rtc_participants","attributes":{"CallType":"Video","Owner":"ALHS Qliq Virtual Visits AP U","Widget":"SPHPMA Telemedicine","SessionID":"RM02864e335464a3652e021222a70a3fe9","Type":"User","Title":null,"Status":"left","StartAt":"2020-11-05T06:11:04.000-06:00","JoinedAt":"2020-11-05T06:11:10.000-06:00","LeftAt":"2020-11-05T06:16:27.000-06:00","Duration":317.0,"DeviceBrowser":"Mozilla/5.0 (Windows NT 10.0; Win64; x64) AppleWebKit/537.36 (KHTML, like Gecko) Chrome/86.0.4240.75 Safari/537.36","FailureReason":null}},{"id":"1229100","type":"rtc_participants","attributes":{"CallType":"Video","Owner":"CO01 Qliq Virtual Visits AP U","Widget":"MCMG Telemedicine","SessionID":"RM6ae78d6fbf714288e6b31977f5a0fdbd","Type":"Patient","Title":null,"Status":"left","StartAt":"2020-11-05T06:09:11.000-06:00","JoinedAt":"2020-11-05T06:09:18.000-06:00","LeftAt":"2020-11-05T06:13:43.000-06:00","Duration":265.0,"DeviceBrowser":"Mozilla/5.0 (iPhone; CPU iPhone OS 14_1 like Mac OS X) AppleWebKit/605.1.15 (KHTML, like Gecko) Version/14.0 Mobile/15E148 Safari/604.1","FailureReason":null}},{"id":"1229099","type":"rtc_participants","attributes":{"CallType":"Video","Owner":"CO01 Qliq Virtual Visits AP U","Widget":"MCMG Telemedicine","SessionID":"RM6ae78d6fbf714288e6b31977f5a0fdbd","Type":"User","Title":"Physician","Status":"left","StartAt":"2020-11-05T06:08:49.000-06:00","JoinedAt":"2020-11-05T06:09:08.000-06:00","LeftAt":"2020-11-05T06:13:46.000-06:00","Duration":278.0,"DeviceBrowser":"Mozilla/5.0 (Macintosh; Intel Mac OS X 10_15_4) AppleWebKit/605.1.15 (KHTML, like Gecko) Version/13.1.1 Safari/605.1.15","FailureReason":null}}]},"meta":{"filters":{"from_time":"2020-11-05T00:00:00.000-06:00","to_time":"2020-11-05T09:00:00.000-06:00"},"page":3,"items":47,"count":547,"total_pages":3}}